<svg width="79px" height="68px" viewBox="0 0 79 68" version="1.1" xmlns="http://www.w3.org/2000/svg" xmlns:xlink="http://www.w3.org/1999/xlink">
    <g id="Website-1" stroke="none" stroke-width="1" fill="none" fill-rule="evenodd">
        <g id="Oddslife---Website---Home-1" transform="translate(-324.000000, -1135.000000)" fill="#5DA9DD">
            <g id="icons-1" transform="translate(253.000000, 1132.000000)">
                <g id="play" transform="translate(0.000000, 3.000000)">
                    <g id="icon-play" transform="translate(71.000000, 0.000000)">
                        <path d="M59.5485102,33.2212816 C59.3513655,33.0337537 59.1193599,32.883491 58.8560996,32.7728977 C58.5916372,32.6635064 58.3067391,32.6082098 58.0026074,32.6082098 C57.6888589,32.6082098 57.4003545,32.6635064 57.1358921,32.7728977 C56.8714298,32.883491 56.6430304,33.0337537 56.4494921,33.2212816 C56.2559537,33.4076074 56.1032868,33.6287941 55.9914913,33.8812354 C55.8796959,34.1336768 55.8243992,34.4065538 55.8243992,34.6998667 C55.8243992,34.9955837 55.8796959,35.2696628 55.9914913,35.5269126 C56.1032868,35.7841624 56.2559537,36.0053491 56.4494921,36.194079 C56.6430304,36.3816069 56.8714298,36.5294654 57.1358921,36.6352503 C57.4003545,36.7410353 57.6888589,36.7939278 58.0026074,36.7939278 C58.3067391,36.7939278 58.5916372,36.7410353 58.8560996,36.6352503 C59.1193599,36.5294654 59.3513655,36.3816069 59.5485102,36.194079 C59.7456548,36.0053491 59.9007259,35.7841624 60.0125214,35.5269126 C60.1243169,35.2696628 60.1796135,34.9955837 60.1796135,34.6998667 C60.1796135,34.4065538 60.1243169,34.1336768 60.0125214,33.8812354 C59.9007259,33.6287941 59.7456548,33.4076074 59.5485102,33.2212816 L59.5485102,33.2212816 Z M56.7391986,30.2845472 L59.3381424,30.2845472 C59.487203,29.5164043 59.606211,28.7650907 59.6975708,28.0257982 C59.7877284,27.2877078 59.8334083,26.5436069 59.8334083,25.7922933 L59.8334083,18.7936574 L56.2451348,18.7936574 L56.2451348,25.7922933 C56.2451348,26.5436069 56.2908147,27.2877078 56.3809723,28.0257982 C56.472332,28.7650907 56.5925422,29.5164043 56.7391986,30.2845472 L56.7391986,30.2845472 Z M53.0114813,33.6672613 C52.9393552,33.6131667 52.8467934,33.5879226 52.7313916,33.5879226 C52.6496487,33.5879226 52.5775226,33.6011457 52.5150133,33.6299962 C52.4537061,33.6576445 52.3875905,33.6913034 52.3166665,33.7285685 C52.2469447,33.7646316 52.1639996,33.7970883 52.0702357,33.8271408 C51.9740676,33.8547892 51.8574637,33.8692144 51.7168178,33.8692144 C51.4451428,33.8692144 51.2371793,33.7730463 51.0929271,33.5819121 C50.9486749,33.3907779 50.8753467,33.1467513 50.8753467,32.8534385 L50.8753467,26.5508195 L54.0561077,26.5508195 L54.0561077,23.9566841 L50.8753467,23.9566841 L50.8753467,20.2494025 L48.8714432,20.2494025 C48.4098361,20.2494025 48.1297464,20.4453451 48.0311741,20.8360282 L47.2750522,23.9314399 L45.2350856,24.3245272 L45.2350856,25.8043143 C45.2350856,26.0495431 45.3036054,26.2346667 45.4454534,26.3620895 C45.5848972,26.4883102 45.7543936,26.5508195 45.9515382,26.5508195 L47.0406423,26.5508195 L47.0406423,33.1106883 C47.0406423,33.6732718 47.1235874,34.1829629 47.2882753,34.6397616 C47.4517611,35.0977623 47.6945856,35.4860411 48.0119405,35.8082044 C48.3292953,36.1303676 48.7211805,36.3792027 49.1875959,36.5547095 C49.6528093,36.7302164 50.1913508,36.8179698 50.8020184,36.8179698 C51.4619723,36.8179698 52.1014903,36.725408 52.7181685,36.5438906 C53.3372509,36.3587669 53.895026,36.0834857 54.3902919,35.7168447 L53.2266575,33.9172985 C53.1533293,33.8030988 53.0800011,33.7189517 53.0114813,33.6672613 L53.0114813,33.6672613 Z M36.2385568,28.7542718 C36.3719901,27.9789162 36.643665,27.3862801 37.0559859,26.9739593 C37.4683068,26.5616384 38.0369009,26.3548769 38.7629703,26.3548769 C39.1764933,26.3548769 39.5263048,26.4258009 39.8148092,26.5628405 C40.1033136,26.7022843 40.3365214,26.8850037 40.5144324,27.1085946 C40.6899392,27.3333877 40.8197662,27.5870311 40.8967007,27.8731313 C40.9760394,28.1580294 41.0157088,28.4525443 41.0157088,28.7542718 L36.2385568,28.7542718 Z M42.8404991,25.2669749 C42.3332122,24.7693048 41.727353,24.3894407 41.0217193,24.1285846 C40.3172877,23.8677286 39.5383259,23.7366995 38.68844,23.7366995 C37.707525,23.7366995 36.8275866,23.9049937 36.0474226,24.2379759 C35.2684607,24.5733622 34.6049006,25.0265546 34.0555402,25.5975528 C33.5073818,26.1685511 33.0854441,26.8333134 32.7945355,27.5906374 C32.5012227,28.3503657 32.3545663,29.1545717 32.3545663,30.0020533 C32.3545663,31.1284226 32.5264668,32.1153481 32.8690658,32.9628297 C33.2104627,33.8115135 33.6768781,34.5219556 34.2671101,35.0929539 C34.8561399,35.6639522 35.5449441,36.0943046 36.3335228,36.3840111 C37.1196973,36.6725155 37.9635727,36.8179698 38.8615426,36.8179698 C39.2991076,36.8179698 39.7595126,36.7879172 40.2415553,36.725408 C40.7248002,36.6641008 41.206843,36.5547095 41.6900878,36.3960321 C42.1721306,36.2373547 42.6421523,36.016168 43.098951,35.7360783 C43.5569517,35.4535844 43.9848999,35.0881455 44.3803914,34.6397616 L43.2660431,33.2825888 C43.1097699,33.0614021 42.8789664,32.9508087 42.5736326,32.9508087 C42.342829,32.9508087 42.1228444,33.0037012 41.9112745,33.1106883 C41.7009067,33.2164732 41.4713053,33.3342792 41.218864,33.4653082 C40.9676247,33.5963373 40.6815245,33.7141433 40.3593613,33.8199282 C40.0384001,33.9257132 39.6537276,33.9798078 39.20895,33.9798078 C38.3758935,33.9798078 37.6943019,33.7405895 37.1665793,33.2633552 C36.6388566,32.7861208 36.3142892,32.0167757 36.1892706,30.95532 L43.5882064,30.95532 C43.761309,30.95532 43.903157,30.9372884 44.0149525,30.8940128 C44.1267479,30.8543434 44.2145013,30.7822173 44.281819,30.6752303 C44.3467325,30.5682432 44.3936145,30.4263952 44.4176565,30.24608 C44.4429006,30.0669668 44.4537196,29.8361633 44.4537196,29.548861 C44.4537196,28.6364659 44.3118716,27.8178346 44.0281756,27.0953715 C43.7432775,26.3741105 43.347786,25.764645 42.8404991,25.2669749 L42.8404991,25.2669749 Z M26.8008566,32.008361 C26.7251242,32.2872486 26.5892867,32.5360837 26.3909399,32.7548662 C26.1937953,32.9760529 25.918514,33.155166 25.5687024,33.2946098 C25.2176887,33.4328515 24.7669006,33.5013713 24.2139338,33.5013713 L21.2687848,33.5013713 L21.2687848,29.0596056 L24.1898918,29.0596056 C24.7164123,29.0596056 25.1551794,29.1076897 25.5001826,29.206262 C25.84759,29.3048344 26.1252755,29.4430761 26.3356433,29.6221892 C26.5460111,29.8025045 26.6950717,30.0224891 26.781623,30.2845472 C26.8669722,30.5442012 26.91145,30.8387161 26.91145,31.1644857 C26.91145,31.4505859 26.8729827,31.7318776 26.8008566,32.008361 L26.8008566,32.008361 Z M21.2687848,21.8878671 L23.7186679,21.8878671 C24.1898918,21.8878671 24.5962022,21.9263344 24.937599,21.9984605 C25.2789959,22.0729908 25.5626919,22.194403 25.7850807,22.3663036 C26.0086716,22.537002 26.1721574,22.7641992 26.2803466,23.045491 C26.3873336,23.3279849 26.4414282,23.6802007 26.4414282,24.1033405 C26.4414282,24.5360971 26.3729084,24.8955255 26.2370709,25.1816257 C26.1012334,25.4665238 25.9028867,25.6901147 25.6432327,25.8536005 C25.3823766,26.0170863 25.067426,26.131286 24.6971787,26.1961995 C24.3245272,26.2623151 23.9098021,26.2935697 23.446993,26.2935697 L21.2687848,26.2935697 L21.2687848,21.8878671 Z M27.5545744,27.3958969 C28.0991264,27.1987523 28.5643398,26.9667466 28.9526186,26.6974759 C29.3396953,26.4294072 29.6582523,26.1336902 29.9046831,25.8115269 C30.1523161,25.4893637 30.3338334,25.1419563 30.4492352,24.771709 C30.565839,24.4002596 30.6235399,24.014385 30.6235399,23.6152872 C30.6235399,22.879601 30.4961171,22.2160409 30.2448779,21.6197984 C29.9936386,21.0247581 29.5921367,20.5198754 29.0391699,20.1027461 C28.4862031,19.6856169 27.7721548,19.3646557 26.8994289,19.1362564 C26.0242989,18.9078571 24.9640453,18.7936574 23.7186679,18.7936574 L17.0878752,18.7936574 L17.0878752,36.6220272 L24.2884641,36.6220272 C25.3679514,36.6220272 26.3296328,36.4849876 27.1711039,36.2121105 C28.0125751,35.9392335 28.7194109,35.5593693 29.2928134,35.0737203 C29.867418,34.5892733 30.3013767,34.0194771 30.5970937,33.3667359 C30.8952149,32.7139947 31.0430734,32.008361 31.0430734,31.2498349 C31.0430734,30.2388674 30.7593774,29.4142256 30.1895812,28.7783139 C29.6209871,28.1424021 28.7422508,27.6819971 27.5545744,27.3958969 L27.5545744,27.3958969 Z M74.9113694,43.6326841 C74.8488601,45.0331326 74.4221141,46.2857225 73.6118975,47.4433464 C72.7572033,48.656267 71.7931177,49.484515 70.68478,50.039886 C69.574038,50.5916507 68.296204,50.8765488 66.7887685,50.8777509 L66.7418865,50.8777509 C64.1802079,50.8729424 61.6173271,50.8717403 59.0556485,50.8717403 C56.0515964,50.8717403 53.0475444,50.8729424 50.0458965,50.8729424 L49.1731707,50.8729424 L48.4014214,50.8729424 C47.9794837,50.8729424 47.568365,51.0412367 47.2714459,51.3345495 C46.9733246,51.6290644 46.8026262,52.0365769 46.8026262,52.452504 L46.8026262,63.1451983 C45.1124713,61.8914063 43.4235184,60.6364122 41.7309593,59.3838222 C38.4912953,56.9844273 35.2444187,54.6150849 32.0528388,52.1964564 C31.5251162,51.7949544 30.9481074,51.447547 30.2989725,51.2083288 C29.6510397,50.9667064 28.9405976,50.8416878 28.2025072,50.844092 C28.1760609,50.844092 28.129179,50.844092 28.0786907,50.8452941 C26.1529238,50.878953 24.2199443,50.8885698 22.2857628,50.8885698 C19.9657065,50.8885698 17.642044,50.8753467 15.3099668,50.8729424 L15.3219878,50.8729424 L15.2354365,50.8729424 C14.3122224,50.8729424 13.4118483,50.8933782 12.5403246,50.8933782 C11.8467119,50.8933782 11.1723329,50.8801551 10.5159854,50.8356773 L10.5183896,50.8356773 C9.01335828,50.7310945 7.77639567,50.3319967 6.73297142,49.6684366 C5.69435559,49.0024723 4.82764029,48.0576203 4.12681501,46.741319 C3.77339713,46.090982 3.5377852,45.1485343 3.19278202,44.0798659 L3.19278202,9.98826273 C3.22644087,9.88247779 3.26731232,9.7466403 3.30577958,9.57113345 L3.30577958,9.56632505 C3.57625245,8.26324684 4.0450721,7.17654694 4.71223853,6.27497069 C5.38301125,5.37339444 6.25453496,4.64011243 7.42898829,4.06310363 C8.11178203,3.72170675 9.04701713,3.48970113 10.097654,3.15912317 L68.0497731,3.15912317 C68.9982313,3.42839395 69.8084479,3.60149659 70.342181,3.87076736 C71.9517951,4.65453765 73.0565266,5.6342505 73.7970212,6.81711854 C74.5327074,8.00239078 74.9257947,9.43409386 74.9318052,11.2168106 C74.9354115,14.9757825 74.9366136,18.7371586 74.9366136,22.4973327 C74.9366136,28.2229429 74.9330073,33.9485531 74.9330073,39.6765675 C74.9330073,40.4314874 74.9438262,41.1707799 74.9438262,41.8968493 C74.9438262,42.4834749 74.9366136,43.06409 74.9113694,43.6326841 L74.9113694,43.6326841 Z M78.1257893,39.6765675 C78.1269914,33.9497552 78.1293956,28.224145 78.1293956,22.4973327 C78.1293956,18.7359565 78.1293956,14.9745804 78.1245872,11.2120022 C78.1245872,8.96767842 77.6052793,6.90607406 76.5161752,5.15942034 C75.4306774,3.41276663 73.7970212,2.0231371 71.7450337,1.03380743 C70.601835,0.490457479 69.537975,0.324567449 68.7421837,0.0709239982 C68.5859105,0.0228399316 68.4356478,1.13686838e-13 68.2709598,1.13686838e-13 L9.85603155,1.13686838e-13 C9.6781205,1.13686838e-13 9.51463468,0.0276483383 9.34634044,0.0841471165 C8.41230745,0.400299854 7.23665202,0.640720187 6.01291253,1.23215421 C4.42012782,2.00871188 3.10983701,3.09060338 2.13613466,4.4081068 C1.16002811,5.72561023 0.522914224,7.26189616 0.177911046,8.93161537 L0.177911046,8.92560486 C0.177911046,8.94363638 0.134635386,9.07105916 0.0637113882,9.30787319 C0.0204357283,9.45092329 5.68434189e-14,9.6023881 5.68434189e-14,9.7490445 L5.68434189e-14,44.3214884 C5.68434189e-14,44.4969952 0.0276483383,44.6652895 0.0841471165,44.8311795 C0.414725074,45.7579999 0.649134899,46.9601015 1.29586559,48.2054789 L1.2970677,48.2078831 C2.21186706,49.9353031 3.46085069,51.3393579 5.00074292,52.3226771 C6.53702885,53.3059962 8.34018135,53.8541546 10.2960008,53.9875879 L10.298405,53.9875879 C11.0581332,54.0392782 11.8070426,54.0525014 12.5403246,54.0525014 C13.4623365,54.0525014 14.3627107,54.0320656 15.2354365,54.0320656 L15.2979458,54.0320656 L15.3087647,54.0320656 C17.6276188,54.0332677 19.9536855,54.0476929 22.2857628,54.0476929 C24.2319654,54.0476929 26.1817743,54.036874 28.1363916,54.0044173 L28.165242,54.0032152 L28.1688483,54.0032152 L28.2025072,54.0032152 C28.6016049,54.0044173 28.8901093,54.0609161 29.1774116,54.166701 C29.4635118,54.272486 29.7592288,54.4371739 30.1114446,54.7040405 C33.3330771,57.1455089 36.5883684,59.5220639 39.8172134,61.911842 C42.1817474,63.6621021 44.5426751,65.4099579 46.8999964,67.1638242 C46.9288469,67.2022915 46.9793352,67.2672049 47.0815138,67.3838088 C47.3856455,67.7276099 47.8184021,67.9199462 48.2812113,67.9199462 L48.4014214,67.9199462 C48.8209549,67.9199462 49.2320737,67.752854 49.5289928,67.4583391 C49.8259119,67.1638242 49.9978124,66.7575138 49.9978124,66.3427888 L49.9978124,54.0320656 L50.0458965,54.0320656 C53.0499486,54.0320656 56.0527985,54.0308635 59.0556485,54.0308635 C61.6245397,54.0308635 64.193431,54.0320656 66.7623223,54.0356719 L66.770737,54.0356719 L66.7767475,54.0356719 L66.7875664,54.0356719 L66.794779,54.0344698 C66.8140126,54.0344698 66.8428631,54.0332677 66.8813303,54.0320656 C68.7626194,54.0212467 70.5381236,53.6522015 72.1212915,52.8612186 C73.7333098,52.0606189 75.1229393,50.832071 76.2360855,49.2452968 C77.3792842,47.6212574 78.0200043,45.7423725 78.1029494,43.7673195 C78.1293956,43.1338119 78.1366082,42.5099212 78.1366082,41.8968493 C78.1366082,41.1407274 78.1257893,40.4014348 78.1257893,39.6765675 L78.1257893,39.6765675 Z"></path>
                    </g>
                </g>
            </g>
        </g>
    </g>
</svg>