<svg id="Layer_1" data-name="Layer 1" xmlns="http://www.w3.org/2000/svg" viewBox="0 0 722.83 722.83">

    <path class="cls-1"
          d="M480.12,35.39c198.63,0,360.23,161.6,360.23,360.22S678.75,755.84,480.12,755.84,119.89,594.25,119.89,395.61,281.49,35.39,480.12,35.39m0,94.75c16.89,0,30.62-14.34,30.62-32s-13.74-32-30.62-32-30.64,14.35-30.64,32,13.75,32,30.64,32m-60,169.5c7.66,0,15-9.62,23.49-20.76,10.38-13.61,22.14-29,36.5-29s26.12,15.43,36.5,29c8.49,11.14,15.83,20.75,23.49,20.75a9,9,0,0,0,3-.5c10-3.45,3.42-28.1-3.5-54.2-4.25-16-8.64-32.57-8-41.17.81-10.6,15.83-16,30.36-21.17,14.27-5.11,27.76-9.93,27.76-19.79,0-14.88-48.52-27-108.4-27.16v0h-1.19c-60.42,0-109.58,12.18-109.58,27.16,0,9.87,13.48,14.7,27.76,19.81,14.51,5.2,29.52,10.57,30.34,21.17.66,8.6-3.73,25.15-8,41.15-6.92,26.11-13.46,50.77-3.49,54.22a9,9,0,0,0,3,.51M595.45,432.94c9.17,0,26-11.69,42.37-23,13.25-9.17,26.95-18.66,35-20.65a9.91,9.91,0,0,1,2.39-.3c9,0,17.72,12.18,26.17,24,8.1,11.29,15.75,21.95,23.75,21.95a8.92,8.92,0,0,0,2.88-.48c13.63-4.63,9.55-57.28-9.09-117.37-17.62-56.59-42.45-100.92-56.53-100.92a6.6,6.6,0,0,0-2.13.35c-9,3-9.19,17.91-9.42,33.65-.24,16.09-.49,32.73-9.87,36.8-7.59,3.33-24,4.08-39.89,4.81-25.86,1.18-50.28,2.3-50.36,13.25,0,9.52,12.29,14.37,26.58,20,15.58,6.12,33.24,13.05,37.7,27.39S609,383.18,599.8,397.72c-8.4,13.31-15.65,24.8-10.26,32.47a6.76,6.76,0,0,0,5.9,2.75m-360.31,2c8,0,15.65-10.66,23.75-21.95,8.45-11.78,17.19-24,26.18-24a9.93,9.93,0,0,1,2.39.3c8,2,21.71,11.48,35,20.65,16.32,11.3,33.19,23,42.35,23a6.76,6.76,0,0,0,5.9-2.75c5.4-7.67-1.85-19.17-10.25-32.48-9.17-14.54-19.57-31-15.11-45.35S367.43,331.1,383,325c14.29-5.61,26.63-10.46,26.58-20-.07-10.95-24.49-12.06-50.35-13.25-15.88-.73-32.3-1.48-39.9-4.81-9.38-4.07-9.63-20.7-9.87-36.78-.23-15.75-.45-30.62-9.44-33.67a6.55,6.55,0,0,0-2.13-.35c-14.09,0-38.92,44.33-56.52,100.92-18.65,60.08-22.74,112.73-9.12,117.37a8.93,8.93,0,0,0,2.88.48m517.7-97.41a29.55,29.55,0,0,0,9.51-1.58c16-5.46,24.84-23.54,19.62-40.29-4.1-13.24-15.81-22.14-29.13-22.14a29.43,29.43,0,0,0-9.49,1.58c-16,5.47-24.82,23.56-19.62,40.32,4.1,13.23,15.8,22.11,29.11,22.11m-545.42,0c13.3,0,25-8.89,29.1-22.11,5.18-16.78-3.64-34.87-19.67-40.32a29.45,29.45,0,0,0-9.48-1.58c-13.31,0-25,8.9-29.12,22.14-5.22,16.74,3.6,34.82,19.67,40.29a29.46,29.46,0,0,0,9.5,1.58M318.25,528.14c-7.32,0-16.53-3-25.43-5.83-8.71-2.8-16.93-5.45-23.41-5.45-4.79,0-8.12,1.45-10.19,4.44-8.41,12.12,24.49,52.18,73.34,89.29,38.54,29.29,76.64,49,94.8,49,4.43,0,7.51-1.22,9.16-3.61,5.55-7.95-2.63-20.13-11.29-33-8.83-13.15-18-26.74-12.67-35.82,4.28-7.37,17.15-18.08,29.59-28.44,20.24-16.85,39.35-32.76,33.29-41.64-2.1-3.05-5.51-4.54-10.46-4.54-6.11,0-14,2.27-22.33,4.68-9.45,2.73-20.17,5.82-29.51,5.82-6.75,0-12.09-1.57-16.33-4.79-11.64-8.83-12.49-28.55-13.24-46-.69-15.95-1.28-29.72-10-32.61a5.89,5.89,0,0,0-1.86-.31c-9.26,0-17.29,22.49-25.79,46.29-5.57,15.58-11.33,31.7-16.7,38.24-2.36,2.88-5.94,4.28-11,4.28m246.14-10.7-1,.76c-4.23,3.22-9.57,4.79-16.31,4.79-9.34,0-19.58-3-29.49-5.81-8.35-2.41-16.23-4.68-22.35-4.68-4.95,0-8.37,1.48-10.47,4.54-6.06,8.88,13.06,24.8,33.31,41.65,12.44,10.35,25.3,21.06,29.59,28.43C553,596.19,543.84,609.8,535,623c-8.65,12.88-16.83,25-11.32,33,1.66,2.39,4.75,3.61,9.18,3.61,18.16,0,56.26-19.68,94.81-49,48.85-37.12,81.76-77.18,73.36-89.29-2.07-3-5.41-4.44-10.2-4.44-6.49,0-14.72,2.65-23.43,5.45-8.91,2.87-18.12,5.83-25.43,5.83-5,0-8.59-1.4-10.94-4.27-5.36-6.54-11.11-22.62-16.67-38.17-8.52-23.83-16.56-46.34-25.84-46.34a5.89,5.89,0,0,0-1.88.31c-8.7,2.88-9.3,16.64-10,32.57-.73,16.9-1.56,36-12.26,45.2m84.28,155.49a29.49,29.49,0,0,0,18-6.14c13.66-10.35,16.7-30.39,6.77-44.66a30.39,30.39,0,0,0-24.82-13.19,29.53,29.53,0,0,0-18,6.14C617,625.45,614,645.49,623.91,659.74a30.23,30.23,0,0,0,24.77,13.19m-337.13,0a30.33,30.33,0,0,0,24.81-13.19c9.89-14.25,6.85-34.29-6.77-44.67a29.47,29.47,0,0,0-18-6.14,30.45,30.45,0,0,0-24.85,13.2c-9.89,14.29-6.84,34.32,6.79,44.66a29.53,29.53,0,0,0,18,6.14M480.12,34.2C280.5,34.2,118.7,196,118.7,395.61S280.5,757,480.12,757,841.54,595.21,841.54,395.61,679.74,34.2,480.12,34.2Zm0,94.75c-16.28,0-29.45-13.79-29.45-30.78s13.17-30.81,29.45-30.81,29.43,13.79,29.43,30.81S496.38,129,480.12,129Zm-60,169.5a7.79,7.79,0,0,1-2.58-.44c-15-5.18,13.93-72.52,12.25-94.34-1.7-22-58.09-22.2-58.09-40.89,0-13.45,46.75-26,108.39-26v0c61.68,0,108.4,12.5,108.4,26,0,18.67-56.44,18.88-58.11,40.86-1.68,21.82,27.22,89.16,12.28,94.34a7.79,7.79,0,0,1-2.57.44c-16.15,0-33.39-49.79-60-49.79s-43.84,49.79-60,49.79ZM595.45,431.75a5.62,5.62,0,0,1-4.93-2.24c-10.57-15,34.21-49.62,25.55-77.5s-64.3-28.34-64.22-47c.12-16.47,70.25-8.52,89.55-17,19.48-8.46,2.27-64.67,19.2-70.41a5.41,5.41,0,0,1,1.75-.28c12.85,0,37.16,41.52,55.4,100.08,19.06,61.4,22.11,111.72,9.85,115.89a7.69,7.69,0,0,1-2.49.42c-15.44,0-31.54-45.9-49.92-45.9a11,11,0,0,0-2.68.33c-18,4.45-60.82,43.6-77,43.6Zm-360.31,2a7.69,7.69,0,0,1-2.49-.42c-12.24-4.16-9.18-54.52,9.87-115.89,18.21-58.56,42.57-100.08,55.38-100.08a5.34,5.34,0,0,1,1.74.28c17,5.76-.29,61.95,19.21,70.41,19.29,8.45,89.44.5,89.54,17,.1,18.67-55.52,19.13-64.22,47s36.12,62.45,25.53,77.5a5.62,5.62,0,0,1-4.93,2.24c-16.21,0-59.07-39.15-77-43.6a11,11,0,0,0-2.68-.33c-18.38,0-34.48,45.9-49.92,45.9Zm517.7-97.41c-12.42,0-23.94-8.27-28-21.27-5-16.23,3.46-33.58,18.87-38.84a28.26,28.26,0,0,1,9.1-1.51c12.42,0,24,8.28,28,21.3,5,16.18-3.44,33.55-18.87,38.81a28.34,28.34,0,0,1-9.13,1.52Zm-545.42,0a28.27,28.27,0,0,1-9.12-1.52c-15.48-5.27-24-22.65-18.91-38.81,4-13,15.57-21.3,28-21.3a28.25,28.25,0,0,1,9.1,1.51c15.45,5.26,23.92,22.61,18.91,38.84-4,13-15.56,21.27-28,21.27Zm110.84,193c4.92,0,9.07-1.28,11.88-4.72,13.18-16,27.12-84.1,41.58-84.1a4.69,4.69,0,0,1,1.49.25c17,5.65.24,61.2,22.89,78.39,4.84,3.68,10.71,5,17,5,17.65,0,39-10.5,51.84-10.5,4.18,0,7.47,1.1,9.47,4,9.14,13.39-52.07,50.11-62.93,68.81s34.53,53.69,24,68.76c-1.44,2.09-4.25,3.1-8.19,3.1-16.68,0-53.73-18.06-94.08-48.72-49.89-37.9-80.65-76.76-73.08-87.67,2-2.84,5.19-3.93,9.21-3.93,13,0,34.27,11.27,48.85,11.27Zm245.87-10.14C586.78,502,570,446.43,587,440.8a4.72,4.72,0,0,1,1.5-.25c14.47,0,28.43,68,41.59,84.08,2.8,3.43,7,4.71,11.86,4.71,14.57,0,35.88-11.28,48.86-11.28,4,0,7.25,1.08,9.22,3.92,7.56,10.91-23.22,49.76-73.1,87.67-40.35,30.66-77.39,48.72-94.09,48.72-3.95,0-6.75-1-8.2-3.1-10.46-15.07,35-50,24-68.76s-72.09-55.41-62.94-68.81c2-2.92,5.31-4,9.49-4,12.9,0,34.2,10.5,51.84,10.5,6.34,0,12.2-1.35,17-5v0Zm84.55,152.55a28.9,28.9,0,0,1-23.79-12.68c-9.59-13.78-6.67-33,6.47-43a28.42,28.42,0,0,1,17.28-5.89,29,29,0,0,1,23.84,12.68c9.59,13.79,6.66,33-6.52,43a28.4,28.4,0,0,1-17.29,5.9Zm-337.13,0a28.43,28.43,0,0,1-17.3-5.9c-13.17-10-16.08-29.24-6.53-43a29.1,29.1,0,0,1,23.87-12.68A28.36,28.36,0,0,1,328.86,616c13.13,10,16.08,29.26,6.52,43a29,29,0,0,1-23.83,12.68Z"
          transform="translate(-118.7 -34.2)"/>
</svg>